EESchema Schematic File Version 2
LIBS:ptt-mcu-pcb-rescue
LIBS:power
LIBS:device
LIBS:transistors
LIBS:conn
LIBS:linear
LIBS:regul
LIBS:74xx
LIBS:cmos4000
LIBS:adc-dac
LIBS:memory
LIBS:xilinx
LIBS:microcontrollers
LIBS:dsp
LIBS:microchip
LIBS:analog_switches
LIBS:motorola
LIBS:texas
LIBS:intel
LIBS:audio
LIBS:interface
LIBS:digital-audio
LIBS:philips
LIBS:display
LIBS:cypress
LIBS:siliconi
LIBS:opto
LIBS:atmel
LIBS:contrib
LIBS:valves
LIBS:ftdi
LIBS:74xgxx
LIBS:ac-dc
LIBS:actel
LIBS:Altera
LIBS:analog_devices
LIBS:battery_management
LIBS:bbd
LIBS:brooktre
LIBS:cmos_ieee
LIBS:dc-dc
LIBS:diode
LIBS:elec-unifil
LIBS:ESD_Protection
LIBS:gennum
LIBS:graphic
LIBS:hc11
LIBS:ir
LIBS:Lattice
LIBS:logo
LIBS:maxim
LIBS:microchip_dspic33dsc
LIBS:microchip_pic10mcu
LIBS:microchip_pic12mcu
LIBS:microchip_pic16mcu
LIBS:microchip_pic18mcu
LIBS:microchip_pic32mcu
LIBS:motor_drivers
LIBS:msp430
LIBS:nordicsemi
LIBS:nxp_armmcu
LIBS:onsemi
LIBS:Oscillators
LIBS:powerint
LIBS:Power_Management
LIBS:pspice
LIBS:references
LIBS:relays
LIBS:rfcom
LIBS:sensors
LIBS:silabs
LIBS:stm8
LIBS:stm32
LIBS:supertex
LIBS:switches
LIBS:transf
LIBS:ttl_ieee
LIBS:video
LIBS:Worldsemi
LIBS:Xicor
LIBS:Zilog
LIBS:ptt-mcu-pcb-cache
EELAYER 25 0
EELAYER END
$Descr USLetter 11000 8500
encoding utf-8
Sheet 1 1
Title "PTT-MCU"
Date "2016-12-18"
Rev "Rev-"
Comp ""
Comment1 "Corbin Weidner"
Comment2 ""
Comment3 ""
Comment4 ""
$EndDescr
$Comp
L USB_OTG-RESCUE-ptt-mcu-pcb P?
U 1 1 5857560D
P 1050 4250
F 0 "P?" H 1375 4125 50  0000 C CNN
F 1 "USB_OTG" H 1050 4450 50  0000 C CNN
F 2 "" V 1000 4150 50  0000 C CNN
F 3 "" V 1000 4150 50  0000 C CNN
	1    1050 4250
	0    -1   1    0   
$EndComp
$Comp
L R R?
U 1 1 585756FC
P 2150 3650
F 0 "R?" V 2230 3650 50  0000 C CNN
F 1 "Ferrite Bead" V 2050 3650 50  0000 C CNN
F 2 "" V 2080 3650 50  0000 C CNN
F 3 "" H 2150 3650 50  0000 C CNN
	1    2150 3650
	0    -1   -1   0   
$EndComp
$Comp
L R R?
U 1 1 58575757
P 2500 4150
F 0 "R?" V 2400 4150 50  0000 C CNN
F 1 "27R" V 2500 4150 50  0000 C CNN
F 2 "" V 2430 4150 50  0000 C CNN
F 3 "" H 2500 4150 50  0000 C CNN
	1    2500 4150
	0    1    1    0   
$EndComp
$Comp
L R R?
U 1 1 5857577B
P 2500 4250
F 0 "R?" V 2580 4250 50  0000 C CNN
F 1 "27R" V 2500 4250 50  0000 C CNN
F 2 "" V 2430 4250 50  0000 C CNN
F 3 "" H 2500 4250 50  0000 C CNN
	1    2500 4250
	0    1    1    0   
$EndComp
$Comp
L +5V #PWR?
U 1 1 58575984
P 3350 3250
F 0 "#PWR?" H 3350 3100 50  0001 C CNN
F 1 "+5V" H 3350 3390 50  0000 C CNN
F 2 "" H 3350 3250 50  0000 C CNN
F 3 "" H 3350 3250 50  0000 C CNN
	1    3350 3250
	1    0    0    -1  
$EndComp
$Comp
L C C?
U 1 1 58575EA9
P 2000 4800
F 0 "C?" H 2025 4900 50  0000 L CNN
F 1 "100n" H 2025 4700 50  0000 L CNN
F 2 "" H 2038 4650 50  0000 C CNN
F 3 "" H 2000 4800 50  0000 C CNN
	1    2000 4800
	1    0    0    -1  
$EndComp
$Comp
L GND #PWR?
U 1 1 58576DA5
P 3550 5050
F 0 "#PWR?" H 3550 4800 50  0001 C CNN
F 1 "GND" H 3550 4900 50  0000 C CNN
F 2 "" H 3550 5050 50  0000 C CNN
F 3 "" H 3550 5050 50  0000 C CNN
	1    3550 5050
	1    0    0    -1  
$EndComp
$Comp
L GND #PWR?
U 1 1 58576DEC
P 950 4750
F 0 "#PWR?" H 950 4500 50  0001 C CNN
F 1 "GND" H 950 4600 50  0000 C CNN
F 2 "" H 950 4750 50  0000 C CNN
F 3 "" H 950 4750 50  0000 C CNN
	1    950  4750
	1    0    0    -1  
$EndComp
$Comp
L C C?
U 1 1 585770C3
P 1750 4450
F 0 "C?" H 1775 4550 50  0000 L CNN
F 1 "10n" H 1775 4350 50  0000 L CNN
F 2 "" H 1788 4300 50  0000 C CNN
F 3 "" H 1750 4450 50  0000 C CNN
	1    1750 4450
	1    0    0    -1  
$EndComp
$Comp
L +5V #PWR?
U 1 1 58577DCC
P 1200 3250
F 0 "#PWR?" H 1200 3100 50  0001 C CNN
F 1 "+5V" H 1200 3390 50  0000 C CNN
F 2 "" H 1200 3250 50  0000 C CNN
F 3 "" H 1200 3250 50  0000 C CNN
	1    1200 3250
	1    0    0    -1  
$EndComp
$Comp
L GND #PWR?
U 1 1 58577E5C
P 1200 3750
F 0 "#PWR?" H 1200 3500 50  0001 C CNN
F 1 "GND" H 1200 3600 50  0000 C CNN
F 2 "" H 1200 3750 50  0000 C CNN
F 3 "" H 1200 3750 50  0000 C CNN
	1    1200 3750
	1    0    0    -1  
$EndComp
$Comp
L C C?
U 1 1 58577E7C
P 1050 3500
F 0 "C?" H 1075 3600 50  0000 L CNN
F 1 "100n" H 1075 3400 50  0000 L CNN
F 2 "" H 1088 3350 50  0000 C CNN
F 3 "" H 1050 3500 50  0000 C CNN
	1    1050 3500
	1    0    0    -1  
$EndComp
$Comp
L CP C?
U 1 1 58577EBA
P 1350 3500
F 0 "C?" H 1375 3600 50  0000 L CNN
F 1 "4.7u" H 1375 3400 50  0000 L CNN
F 2 "" H 1388 3350 50  0000 C CNN
F 3 "" H 1350 3500 50  0000 C CNN
	1    1350 3500
	1    0    0    -1  
$EndComp
Text Label 4150 3850 0    60   ~ 0
TXD
Text Label 4150 3950 0    60   ~ 0
RXD
Text Label 4150 4050 0    60   ~ 0
RTS#
Text Label 4150 4150 0    60   ~ 0
CTS#
Text Label 4150 4350 0    60   ~ 0
SLEEP#
Text Label 4150 4450 0    60   ~ 0
TXLED
Text Label 4150 4550 0    60   ~ 0
RXLED
$Comp
L R R?
U 1 1 58578B04
P 5200 3750
F 0 "R?" V 5100 3750 50  0000 C CNN
F 1 "10k" V 5200 3750 50  0000 C CNN
F 2 "" V 5130 3750 50  0000 C CNN
F 3 "" H 5200 3750 50  0000 C CNN
	1    5200 3750
	-1   0    0    1   
$EndComp
$Comp
L R R?
U 1 1 58578C03
P 5400 3750
F 0 "R?" V 5300 3750 50  0000 C CNN
F 1 "10k" V 5400 3750 50  0000 C CNN
F 2 "" V 5330 3750 50  0000 C CNN
F 3 "" H 5400 3750 50  0000 C CNN
	1    5400 3750
	-1   0    0    1   
$EndComp
$Comp
L R R?
U 1 1 58578C3C
P 5600 3750
F 0 "R?" V 5500 3750 50  0000 C CNN
F 1 "10k" V 5600 3750 50  0000 C CNN
F 2 "" V 5530 3750 50  0000 C CNN
F 3 "" H 5600 3750 50  0000 C CNN
	1    5600 3750
	-1   0    0    1   
$EndComp
$Comp
L R R?
U 1 1 58578C74
P 5800 3750
F 0 "R?" V 5700 3750 50  0000 C CNN
F 1 "10k" V 5800 3750 50  0000 C CNN
F 2 "" V 5730 3750 50  0000 C CNN
F 3 "" H 5800 3750 50  0000 C CNN
	1    5800 3750
	-1   0    0    1   
$EndComp
Text Label 3550 3450 0    60   ~ 0
VCCIO
Text Label 5800 3500 0    60   ~ 0
VCCIO
Text Label 5100 3950 2    60   ~ 0
TXD
Text Label 5100 4050 2    60   ~ 0
RXD
Text Notes 1000 2900 0    60   ~ 0
FTDI Chip and USB Power
Text Notes 4950 3300 0    60   ~ 0
UART Pull-UPs
Text Label 5100 4150 2    60   ~ 0
RTS#
Text Label 5100 4250 2    60   ~ 0
CTS#
$Comp
L LED-RESCUE-ptt-mcu-pcb D?
U 1 1 5857B13D
P 6850 3950
F 0 "D?" H 6850 4050 50  0000 C CNN
F 1 "LED" H 6850 3850 50  0000 C CNN
F 2 "" H 6850 3950 50  0000 C CNN
F 3 "" H 6850 3950 50  0000 C CNN
	1    6850 3950
	0    -1   -1   0   
$EndComp
$Comp
L LED-RESCUE-ptt-mcu-pcb D?
U 1 1 5857B218
P 7250 3950
F 0 "D?" H 7250 4050 50  0000 C CNN
F 1 "LED" H 7250 3850 50  0000 C CNN
F 2 "" H 7250 3950 50  0000 C CNN
F 3 "" H 7250 3950 50  0000 C CNN
	1    7250 3950
	0    -1   -1   0   
$EndComp
$Comp
L R R?
U 1 1 5857B2A4
P 7250 3600
F 0 "R?" V 7150 3600 50  0000 C CNN
F 1 "270R" V 7250 3600 50  0000 C CNN
F 2 "" V 7180 3600 50  0000 C CNN
F 3 "" H 7250 3600 50  0000 C CNN
	1    7250 3600
	-1   0    0    1   
$EndComp
$Comp
L R R?
U 1 1 5857B313
P 6850 3600
F 0 "R?" V 6750 3600 50  0000 C CNN
F 1 "270R" V 6850 3600 50  0000 C CNN
F 2 "" V 6780 3600 50  0000 C CNN
F 3 "" H 6850 3600 50  0000 C CNN
	1    6850 3600
	-1   0    0    1   
$EndComp
Text Label 7300 3350 0    60   ~ 0
VCCIO
Text Label 6750 4200 2    60   ~ 0
TXLED
Text Label 6750 4300 2    60   ~ 0
RXLED
NoConn ~ 1350 4350
$Comp
L TEST_1P TP?
U 1 1 5857DBB7
P 4350 4550
F 0 "TP?" H 4350 4750 50  0000 C CNN
F 1 "TEST_1P" H 4350 4750 50  0001 C CNN
F 2 "" H 4550 4550 50  0000 C CNN
F 3 "" H 4550 4550 50  0000 C CNN
	1    4350 4550
	0    1    1    0   
$EndComp
$Comp
L TEST_1P TP?
U 1 1 5857F3E7
P 4400 4450
F 0 "TP?" H 4400 4650 50  0000 C CNN
F 1 "TEST_1P" H 4400 4650 50  0001 C CNN
F 2 "" H 4600 4450 50  0000 C CNN
F 3 "" H 4600 4450 50  0000 C CNN
	1    4400 4450
	0    1    1    0   
$EndComp
$Comp
L TEST_1P TP?
U 1 1 5857F430
P 4350 4350
F 0 "TP?" H 4350 4550 50  0000 C CNN
F 1 "TEST_1P" H 4350 4550 50  0001 C CNN
F 2 "" H 4550 4350 50  0000 C CNN
F 3 "" H 4550 4350 50  0000 C CNN
	1    4350 4350
	0    1    1    0   
$EndComp
$Comp
L TEST_1P TP?
U 1 1 5857F648
P 4400 4150
F 0 "TP?" H 4400 4350 50  0000 C CNN
F 1 "TEST_1P" H 4400 4350 50  0001 C CNN
F 2 "" H 4600 4150 50  0000 C CNN
F 3 "" H 4600 4150 50  0000 C CNN
	1    4400 4150
	0    1    1    0   
$EndComp
$Comp
L TEST_1P TP?
U 1 1 5857F699
P 4350 4050
F 0 "TP?" H 4350 4250 50  0000 C CNN
F 1 "TEST_1P" H 4350 4250 50  0001 C CNN
F 2 "" H 4550 4050 50  0000 C CNN
F 3 "" H 4550 4050 50  0000 C CNN
	1    4350 4050
	0    1    1    0   
$EndComp
$Comp
L TEST_1P TP?
U 1 1 5857F6EB
P 4400 3950
F 0 "TP?" H 4400 4150 50  0000 C CNN
F 1 "TEST_1P" H 4400 4150 50  0001 C CNN
F 2 "" H 4600 3950 50  0000 C CNN
F 3 "" H 4600 3950 50  0000 C CNN
	1    4400 3950
	0    1    1    0   
$EndComp
$Comp
L TEST_1P TP?
U 1 1 5857F90C
P 4350 3850
F 0 "TP?" H 4350 4050 50  0000 C CNN
F 1 "TEST_1P" H 4350 4050 50  0001 C CNN
F 2 "" H 4550 3850 50  0000 C CNN
F 3 "" H 4550 3850 50  0000 C CNN
	1    4350 3850
	0    1    1    0   
$EndComp
$Comp
L TEST_1P TP?
U 1 1 5858039C
P 4400 4650
F 0 "TP?" H 4400 4850 50  0000 C CNN
F 1 "TEST_1P" H 4400 4850 50  0001 C CNN
F 2 "" H 4600 4650 50  0000 C CNN
F 3 "" H 4600 4650 50  0000 C CNN
	1    4400 4650
	0    1    1    0   
$EndComp
$Comp
L TEST_1P TP?
U 1 1 5858116A
P 2300 4100
F 0 "TP?" H 2300 4300 50  0000 C CNN
F 1 "TEST_1P" H 2300 4300 50  0001 C CNN
F 2 "" H 2500 4100 50  0000 C CNN
F 3 "" H 2500 4100 50  0000 C CNN
	1    2300 4100
	1    0    0    -1  
$EndComp
$Comp
L TEST_1P TP?
U 1 1 5858171B
P 2300 4300
F 0 "TP?" H 2300 4500 50  0000 C CNN
F 1 "TEST_1P" H 2300 4500 50  0001 C CNN
F 2 "" H 2500 4300 50  0000 C CNN
F 3 "" H 2500 4300 50  0000 C CNN
	1    2300 4300
	-1   0    0    1   
$EndComp
$Comp
L TEST_1P TP?
U 1 1 585821BF
P 2600 3500
F 0 "TP?" H 2600 3700 50  0000 C CNN
F 1 "TEST_1P" H 2600 3700 50  0001 C CNN
F 2 "" H 2800 3500 50  0000 C CNN
F 3 "" H 2800 3500 50  0000 C CNN
	1    2600 3500
	-1   0    0    1   
$EndComp
$Comp
L TEST_1P TP?
U 1 1 585838A4
P 2600 3300
F 0 "TP?" H 2600 3500 50  0000 C CNN
F 1 "TEST_1P" H 2600 3500 50  0001 C CNN
F 2 "" H 2800 3300 50  0000 C CNN
F 3 "" H 2800 3300 50  0000 C CNN
	1    2600 3300
	1    0    0    -1  
$EndComp
$Comp
L TEST_1P TP?
U 1 1 5858392D
P 1850 3600
F 0 "TP?" H 1850 3800 50  0000 C CNN
F 1 "TEST_1P" H 1850 3800 50  0001 C CNN
F 2 "" H 2050 3600 50  0000 C CNN
F 3 "" H 2050 3600 50  0000 C CNN
	1    1850 3600
	1    0    0    -1  
$EndComp
Text Label 1400 4050 0    60   ~ 0
USB5V
Text Label 1400 4150 0    60   ~ 0
USBDM
Text Label 1400 4250 0    60   ~ 0
USBDP
$Comp
L FT230XS U?
U 1 1 58577181
P 3450 4250
F 0 "U?" H 2900 4850 50  0000 L CNN
F 1 "FT230XS" H 3750 4850 50  0000 L CNN
F 2 "SSOP-16" H 3450 4250 50  0000 C CNN
F 3 "" H 3450 4250 50  0000 C CNN
	1    3450 4250
	1    0    0    -1  
$EndComp
$Comp
L PIC12(L)F1822-I/SN IC?
U 1 1 58584EAE
P 2650 6250
F 0 "IC?" H 1400 6800 50  0000 L CNN
F 1 "PIC12(L)F1822-I/SN" H 1400 6700 50  0000 L CNN
F 2 "" H 2650 6250 50  0000 C CNN
F 3 "" H 2650 6250 50  0000 C CNN
	1    2650 6250
	1    0    0    -1  
$EndComp
$Comp
L +5V #PWR?
U 1 1 58587B0B
P 1050 5850
F 0 "#PWR?" H 1050 5700 50  0001 C CNN
F 1 "+5V" H 1050 5990 50  0000 C CNN
F 2 "" H 1050 5850 50  0000 C CNN
F 3 "" H 1050 5850 50  0000 C CNN
	1    1050 5850
	1    0    0    -1  
$EndComp
$Comp
L GND #PWR?
U 1 1 585880A8
P 1050 6650
F 0 "#PWR?" H 1050 6400 50  0001 C CNN
F 1 "GND" H 1050 6500 50  0000 C CNN
F 2 "" H 1050 6650 50  0000 C CNN
F 3 "" H 1050 6650 50  0000 C CNN
	1    1050 6650
	1    0    0    -1  
$EndComp
$Comp
L CONN_01X05 P?
U 1 1 585898ED
P 5400 6200
F 0 "P?" H 5400 6500 50  0000 C CNN
F 1 "ICSP" V 5500 6200 50  0000 C CNN
F 2 "" H 5400 6200 50  0000 C CNN
F 3 "" H 5400 6200 50  0000 C CNN
	1    5400 6200
	1    0    0    -1  
$EndComp
$Comp
L +5V #PWR?
U 1 1 58589F98
P 4900 6050
F 0 "#PWR?" H 4900 5900 50  0001 C CNN
F 1 "+5V" H 4900 6190 50  0000 C CNN
F 2 "" H 4900 6050 50  0000 C CNN
F 3 "" H 4900 6050 50  0000 C CNN
	1    4900 6050
	1    0    0    -1  
$EndComp
$Comp
L GND #PWR?
U 1 1 5858A003
P 4900 6250
F 0 "#PWR?" H 4900 6000 50  0001 C CNN
F 1 "GND" H 4900 6100 50  0000 C CNN
F 2 "" H 4900 6250 50  0000 C CNN
F 3 "" H 4900 6250 50  0000 C CNN
	1    4900 6250
	1    0    0    -1  
$EndComp
Text Label 5200 6000 2    60   ~ 0
VPP
Text Label 5200 6300 2    60   ~ 0
PGD
Text Label 5200 6400 2    60   ~ 0
PGC
Text Label 4050 6250 0    60   ~ 0
VPP
Text Label 4050 5950 0    60   ~ 0
PGD
Text Label 4050 6050 0    60   ~ 0
PGC
Text Label 3400 7200 2    60   ~ 0
PICRXD
Text Label 3400 7500 2    60   ~ 0
PICTXD
$Comp
L R R?
U 1 1 585911BD
P 3900 7450
F 0 "R?" V 4000 7450 50  0000 C CNN
F 1 "0R" V 3900 7450 50  0000 C CNN
F 2 "" V 3830 7450 50  0000 C CNN
F 3 "" H 3900 7450 50  0000 C CNN
	1    3900 7450
	0    -1   -1   0   
$EndComp
$Comp
L R R?
U 1 1 5859162F
P 3900 7550
F 0 "R?" V 3800 7550 50  0000 C CNN
F 1 "0R" V 3900 7550 50  0000 C CNN
F 2 "" V 3830 7550 50  0000 C CNN
F 3 "" H 3900 7550 50  0000 C CNN
	1    3900 7550
	0    -1   -1   0   
$EndComp
$Comp
L R R?
U 1 1 58591F75
P 3650 7150
F 0 "R?" V 3750 7150 50  0000 C CNN
F 1 "0R" V 3650 7150 50  0000 C CNN
F 2 "" V 3580 7150 50  0000 C CNN
F 3 "" H 3650 7150 50  0000 C CNN
	1    3650 7150
	0    -1   -1   0   
$EndComp
$Comp
L R R?
U 1 1 58591F7B
P 3650 7250
F 0 "R?" V 3550 7250 50  0000 C CNN
F 1 "0R" V 3650 7250 50  0000 C CNN
F 2 "" V 3580 7250 50  0000 C CNN
F 3 "" H 3650 7250 50  0000 C CNN
	1    3650 7250
	0    -1   -1   0   
$EndComp
Text Label 4100 7450 0    60   ~ 0
PGD
Text Label 4100 7150 0    60   ~ 0
PGC
$Comp
L TEST_1P TP?
U 1 1 58596BA4
P 4300 5950
F 0 "TP?" H 4300 6150 50  0000 C CNN
F 1 "TEST_1P" H 4300 6150 50  0001 C CNN
F 2 "" H 4500 5950 50  0000 C CNN
F 3 "" H 4500 5950 50  0000 C CNN
	1    4300 5950
	0    1    1    0   
$EndComp
$Comp
L TEST_1P TP?
U 1 1 5859732C
P 4350 6050
F 0 "TP?" H 4350 6250 50  0000 C CNN
F 1 "TEST_1P" H 4350 6250 50  0001 C CNN
F 2 "" H 4550 6050 50  0000 C CNN
F 3 "" H 4550 6050 50  0000 C CNN
	1    4350 6050
	0    1    1    0   
$EndComp
$Comp
L TEST_1P TP?
U 1 1 58597416
P 4300 6150
F 0 "TP?" H 4300 6350 50  0000 C CNN
F 1 "TEST_1P" H 4300 6350 50  0001 C CNN
F 2 "" H 4500 6150 50  0000 C CNN
F 3 "" H 4500 6150 50  0000 C CNN
	1    4300 6150
	0    1    1    0   
$EndComp
$Comp
L TEST_1P TP?
U 1 1 5859741C
P 4350 6250
F 0 "TP?" H 4350 6450 50  0000 C CNN
F 1 "TEST_1P" H 4350 6450 50  0001 C CNN
F 2 "" H 4550 6250 50  0000 C CNN
F 3 "" H 4550 6250 50  0000 C CNN
	1    4350 6250
	0    1    1    0   
$EndComp
$Comp
L TEST_1P TP?
U 1 1 5859745E
P 4300 6350
F 0 "TP?" H 4300 6550 50  0000 C CNN
F 1 "TEST_1P" H 4300 6550 50  0001 C CNN
F 2 "" H 4500 6350 50  0000 C CNN
F 3 "" H 4500 6350 50  0000 C CNN
	1    4300 6350
	0    1    1    0   
$EndComp
$Comp
L TEST_1P TP?
U 1 1 58597464
P 4350 6450
F 0 "TP?" H 4350 6650 50  0000 C CNN
F 1 "TEST_1P" H 4350 6650 50  0001 C CNN
F 2 "" H 4550 6450 50  0000 C CNN
F 3 "" H 4550 6450 50  0000 C CNN
	1    4350 6450
	0    1    1    0   
$EndComp
$Comp
L C C?
U 1 1 5859A56B
P 1100 6250
F 0 "C?" H 1125 6350 50  0000 L CNN
F 1 "0.1u" H 1125 6150 50  0000 L CNN
F 2 "" H 1138 6100 50  0000 C CNN
F 3 "" H 1100 6250 50  0000 C CNN
	1    1100 6250
	1    0    0    -1  
$EndComp
Text Label 4050 6450 0    60   ~ 0
RA5
Text Label 4050 6350 0    60   ~ 0
RA4
$Comp
L LED-RESCUE-ptt-mcu-pcb D?
U 1 1 585A56EF
P 8100 3950
F 0 "D?" H 8100 4050 50  0000 C CNN
F 1 "LED" H 8100 3850 50  0000 C CNN
F 2 "" H 8100 3950 50  0000 C CNN
F 3 "" H 8100 3950 50  0000 C CNN
	1    8100 3950
	0    -1   -1   0   
$EndComp
$Comp
L R R?
U 1 1 585AAE9E
P 8100 3600
F 0 "R?" V 8000 3600 50  0000 C CNN
F 1 "270R" V 8100 3600 50  0000 C CNN
F 2 "" V 8030 3600 50  0000 C CNN
F 3 "" H 8100 3600 50  0000 C CNN
	1    8100 3600
	-1   0    0    1   
$EndComp
$Comp
L +5V #PWR?
U 1 1 585AB67E
P 8100 3400
F 0 "#PWR?" H 8100 3250 50  0001 C CNN
F 1 "+5V" H 8100 3540 50  0000 C CNN
F 2 "" H 8100 3400 50  0000 C CNN
F 3 "" H 8100 3400 50  0000 C CNN
	1    8100 3400
	1    0    0    -1  
$EndComp
$Comp
L GND #PWR?
U 1 1 585ADAFE
P 8100 4200
F 0 "#PWR?" H 8100 3950 50  0001 C CNN
F 1 "GND" H 8100 4050 50  0000 C CNN
F 2 "" H 8100 4200 50  0000 C CNN
F 3 "" H 8100 4200 50  0000 C CNN
	1    8100 4200
	1    0    0    -1  
$EndComp
Text Notes 6400 3250 3    60   ~ 0
Power and Status LEDs
Text Notes 3150 7000 0    60   ~ 0
UART IO Selection/Muxing
Text Notes 4700 7850 0    60   ~ 0
IO Notes\nPIC UART Pins: \n  - RA0(Tx) RA1(Rx)\n  - RA4(Tx) RA5(Rx)
Text Label 4100 7550 0    60   ~ 0
RA4
Text Label 4100 7250 0    60   ~ 0
RA5
$Comp
L LED-RESCUE-ptt-mcu-pcb D?
U 1 1 585CC06C
P 7750 3950
F 0 "D?" H 7750 4050 50  0000 C CNN
F 1 "LED" H 7750 3850 50  0000 C CNN
F 2 "" H 7750 3950 50  0000 C CNN
F 3 "" H 7750 3950 50  0000 C CNN
	1    7750 3950
	0    -1   -1   0   
$EndComp
$Comp
L R R?
U 1 1 585CC114
P 7750 3600
F 0 "R?" V 7650 3600 50  0000 C CNN
F 1 "270R" V 7750 3600 50  0000 C CNN
F 2 "" V 7680 3600 50  0000 C CNN
F 3 "" H 7750 3600 50  0000 C CNN
	1    7750 3600
	-1   0    0    1   
$EndComp
$Comp
L +5V #PWR?
U 1 1 585CC7DE
P 7750 3400
F 0 "#PWR?" H 7750 3250 50  0001 C CNN
F 1 "+5V" H 7750 3540 50  0000 C CNN
F 2 "" H 7750 3400 50  0000 C CNN
F 3 "" H 7750 3400 50  0000 C CNN
	1    7750 3400
	1    0    0    -1  
$EndComp
Text Label 7650 4300 2    60   ~ 0
LED0
$Comp
L BSS138 Q?
U 1 1 585D9588
P 7000 5350
F 0 "Q?" V 7200 5200 50  0000 L CNN
F 1 "BSS138" V 7200 5350 50  0000 L CNN
F 2 "TO_SOT_Packages_SMD:SOT-23" H 7200 5275 50  0001 L CIN
F 3 "" H 7000 5350 50  0000 L CNN
	1    7000 5350
	0    1    1    0   
$EndComp
Text Label 6650 5000 1    60   ~ 0
VCCIO
$Comp
L +5V #PWR?
U 1 1 585DC9A7
P 7350 4950
F 0 "#PWR?" H 7350 4800 50  0001 C CNN
F 1 "+5V" H 7350 5090 50  0000 C CNN
F 2 "" H 7350 4950 50  0000 C CNN
F 3 "" H 7350 4950 50  0000 C CNN
	1    7350 4950
	1    0    0    -1  
$EndComp
$Comp
L R R?
U 1 1 585DD522
P 6650 5250
F 0 "R?" V 6550 5250 50  0000 C CNN
F 1 "10k" V 6650 5250 50  0000 C CNN
F 2 "" V 6580 5250 50  0000 C CNN
F 3 "" H 6650 5250 50  0000 C CNN
	1    6650 5250
	-1   0    0    1   
$EndComp
$Comp
L R R?
U 1 1 585DE6A2
P 7350 5250
F 0 "R?" V 7250 5250 50  0000 C CNN
F 1 "10k" V 7350 5250 50  0000 C CNN
F 2 "" V 7280 5250 50  0000 C CNN
F 3 "" H 7350 5250 50  0000 C CNN
	1    7350 5250
	-1   0    0    1   
$EndComp
$Comp
L BSS138 Q?
U 1 1 585E15A3
P 7050 6250
F 0 "Q?" V 7250 6100 50  0000 L CNN
F 1 "BSS138" V 7250 6250 50  0000 L CNN
F 2 "TO_SOT_Packages_SMD:SOT-23" H 7250 6175 50  0001 L CIN
F 3 "" H 7050 6250 50  0000 L CNN
	1    7050 6250
	0    1    1    0   
$EndComp
Text Label 6700 5900 1    60   ~ 0
VCCIO
$Comp
L +5V #PWR?
U 1 1 585E15AA
P 7400 5850
F 0 "#PWR?" H 7400 5700 50  0001 C CNN
F 1 "+5V" H 7400 5990 50  0000 C CNN
F 2 "" H 7400 5850 50  0000 C CNN
F 3 "" H 7400 5850 50  0000 C CNN
	1    7400 5850
	1    0    0    -1  
$EndComp
$Comp
L R R?
U 1 1 585E15B0
P 6700 6150
F 0 "R?" V 6600 6150 50  0000 C CNN
F 1 "10k" V 6700 6150 50  0000 C CNN
F 2 "" V 6630 6150 50  0000 C CNN
F 3 "" H 6700 6150 50  0000 C CNN
	1    6700 6150
	-1   0    0    1   
$EndComp
$Comp
L R R?
U 1 1 585E15B6
P 7400 6150
F 0 "R?" V 7300 6150 50  0000 C CNN
F 1 "10k" V 7400 6150 50  0000 C CNN
F 2 "" V 7330 6150 50  0000 C CNN
F 3 "" H 7400 6150 50  0000 C CNN
	1    7400 6150
	-1   0    0    1   
$EndComp
$Comp
L BSS138 Q?
U 1 1 585E1759
P 8500 5350
F 0 "Q?" V 8700 5200 50  0000 L CNN
F 1 "BSS138" V 8700 5350 50  0000 L CNN
F 2 "TO_SOT_Packages_SMD:SOT-23" H 8700 5275 50  0001 L CIN
F 3 "" H 8500 5350 50  0000 L CNN
	1    8500 5350
	0    1    1    0   
$EndComp
Text Label 8150 5000 1    60   ~ 0
VCCIO
$Comp
L +5V #PWR?
U 1 1 585E1760
P 8850 4950
F 0 "#PWR?" H 8850 4800 50  0001 C CNN
F 1 "+5V" H 8850 5090 50  0000 C CNN
F 2 "" H 8850 4950 50  0000 C CNN
F 3 "" H 8850 4950 50  0000 C CNN
	1    8850 4950
	1    0    0    -1  
$EndComp
$Comp
L R R?
U 1 1 585E1766
P 8150 5250
F 0 "R?" V 8050 5250 50  0000 C CNN
F 1 "10k" V 8150 5250 50  0000 C CNN
F 2 "" V 8080 5250 50  0000 C CNN
F 3 "" H 8150 5250 50  0000 C CNN
	1    8150 5250
	-1   0    0    1   
$EndComp
$Comp
L R R?
U 1 1 585E176C
P 8850 5250
F 0 "R?" V 8750 5250 50  0000 C CNN
F 1 "10k" V 8850 5250 50  0000 C CNN
F 2 "" V 8780 5250 50  0000 C CNN
F 3 "" H 8850 5250 50  0000 C CNN
	1    8850 5250
	-1   0    0    1   
$EndComp
$Comp
L BSS138 Q?
U 1 1 585E1772
P 8550 6250
F 0 "Q?" V 8750 6100 50  0000 L CNN
F 1 "BSS138" V 8750 6250 50  0000 L CNN
F 2 "TO_SOT_Packages_SMD:SOT-23" H 8750 6175 50  0001 L CIN
F 3 "" H 8550 6250 50  0000 L CNN
	1    8550 6250
	0    1    1    0   
$EndComp
Text Label 8200 5900 1    60   ~ 0
VCCIO
$Comp
L +5V #PWR?
U 1 1 585E1779
P 8900 5850
F 0 "#PWR?" H 8900 5700 50  0001 C CNN
F 1 "+5V" H 8900 5990 50  0000 C CNN
F 2 "" H 8900 5850 50  0000 C CNN
F 3 "" H 8900 5850 50  0000 C CNN
	1    8900 5850
	1    0    0    -1  
$EndComp
$Comp
L R R?
U 1 1 585E177F
P 8200 6150
F 0 "R?" V 8100 6150 50  0000 C CNN
F 1 "10k" V 8200 6150 50  0000 C CNN
F 2 "" V 8130 6150 50  0000 C CNN
F 3 "" H 8200 6150 50  0000 C CNN
	1    8200 6150
	-1   0    0    1   
$EndComp
$Comp
L R R?
U 1 1 585E1785
P 8900 6150
F 0 "R?" V 8800 6150 50  0000 C CNN
F 1 "10k" V 8900 6150 50  0000 C CNN
F 2 "" V 8830 6150 50  0000 C CNN
F 3 "" H 8900 6150 50  0000 C CNN
	1    8900 6150
	-1   0    0    1   
$EndComp
Text Label 6550 5450 2    60   ~ 0
TXD
Text Label 8050 5450 2    60   ~ 0
RXD
Text Label 6600 6350 2    60   ~ 0
RTS#
Text Label 8100 6350 2    60   ~ 0
CTS#
$Comp
L TEST_1P TP?
U 1 1 585F35D6
P 9000 6350
F 0 "TP?" H 9000 6550 50  0000 C CNN
F 1 "TEST_1P" H 9000 6550 50  0001 C CNN
F 2 "" H 9200 6350 50  0000 C CNN
F 3 "" H 9200 6350 50  0000 C CNN
	1    9000 6350
	0    1    1    0   
$EndComp
$Comp
L TEST_1P TP?
U 1 1 585F401E
P 8750 5400
F 0 "TP?" H 8750 5600 50  0000 C CNN
F 1 "TEST_1P" H 8750 5600 50  0001 C CNN
F 2 "" H 8950 5400 50  0000 C CNN
F 3 "" H 8950 5400 50  0000 C CNN
	1    8750 5400
	1    0    0    -1  
$EndComp
$Comp
L TEST_1P TP?
U 1 1 585F6507
P 7500 6350
F 0 "TP?" H 7500 6550 50  0000 C CNN
F 1 "TEST_1P" H 7500 6550 50  0001 C CNN
F 2 "" H 7700 6350 50  0000 C CNN
F 3 "" H 7700 6350 50  0000 C CNN
	1    7500 6350
	0    1    1    0   
$EndComp
$Comp
L TEST_1P TP?
U 1 1 585F662F
P 7250 5400
F 0 "TP?" H 7250 5600 50  0000 C CNN
F 1 "TEST_1P" H 7250 5600 50  0001 C CNN
F 2 "" H 7450 5400 50  0000 C CNN
F 3 "" H 7450 5400 50  0000 C CNN
	1    7250 5400
	1    0    0    -1  
$EndComp
Text Label 7450 5450 0    60   ~ 0
PICRXD
Text Label 8950 5450 0    60   ~ 0
PICTXD
Text Notes 6350 4600 0    60   ~ 0
Logic Level Shifting (3v3 -> 5v0)
Text Notes 6550 6650 0    60   ~ 0
note: These flow control ones are here just in case
Text Label 4050 6150 0    60   ~ 0
RA2
$Comp
L TEST_1P TP?
U 1 1 58617C08
P 1700 7000
F 0 "TP?" H 1700 7200 50  0000 C CNN
F 1 "TEST_1P" H 1700 7200 50  0001 C CNN
F 2 "" H 1900 7000 50  0000 C CNN
F 3 "" H 1900 7000 50  0000 C CNN
	1    1700 7000
	0    -1   -1   0   
$EndComp
$Comp
L R R?
U 1 1 58618548
P 2000 7000
F 0 "R?" V 2100 7000 50  0000 C CNN
F 1 "0R" V 2000 7000 50  0000 C CNN
F 2 "" V 1930 7000 50  0000 C CNN
F 3 "" H 2000 7000 50  0000 C CNN
	1    2000 7000
	0    -1   -1   0   
$EndComp
Text Label 1850 7000 2    60   ~ 0
LED0
Text Label 2200 7000 0    60   ~ 0
RA2
$Comp
L CONN_01X04 P?
U 1 1 586205D2
P 2350 7450
F 0 "P?" H 2350 7700 50  0000 C CNN
F 1 "EXTCONN" V 2450 7450 50  0000 C CNN
F 2 "" H 2350 7450 50  0000 C CNN
F 3 "" H 2350 7450 50  0000 C CNN
	1    2350 7450
	1    0    0    -1  
$EndComp
$Comp
L R R?
U 1 1 586212FD
P 1700 7300
F 0 "R?" V 1750 7450 50  0000 C CNN
F 1 "0R" V 1700 7300 50  0000 C CNN
F 2 "" V 1630 7300 50  0000 C CNN
F 3 "" H 1700 7300 50  0000 C CNN
	1    1700 7300
	0    -1   -1   0   
$EndComp
$Comp
L R R?
U 1 1 586215E1
P 1700 7500
F 0 "R?" V 1750 7650 50  0000 C CNN
F 1 "0R" V 1700 7500 50  0000 C CNN
F 2 "" V 1630 7500 50  0000 C CNN
F 3 "" H 1700 7500 50  0000 C CNN
	1    1700 7500
	0    -1   -1   0   
$EndComp
Text Label 2150 7300 2    60   ~ 0
EXT0
$Comp
L TEST_1P TP?
U 1 1 5862B90E
P 1450 7400
F 0 "TP?" H 1450 7600 50  0000 C CNN
F 1 "TEST_1P" H 1450 7600 50  0001 C CNN
F 2 "" H 1650 7400 50  0000 C CNN
F 3 "" H 1650 7400 50  0000 C CNN
	1    1450 7400
	0    -1   -1   0   
$EndComp
$Comp
L TEST_1P TP?
U 1 1 5862BC85
P 1450 7200
F 0 "TP?" H 1450 7400 50  0000 C CNN
F 1 "TEST_1P" H 1450 7400 50  0001 C CNN
F 2 "" H 1650 7200 50  0000 C CNN
F 3 "" H 1650 7200 50  0000 C CNN
	1    1450 7200
	0    -1   -1   0   
$EndComp
Text Label 2150 7500 2    60   ~ 0
EXT1
Text Label 1500 7300 2    60   ~ 0
RA4
Text Label 1500 7500 2    60   ~ 0
RA5
$Comp
L GND #PWR?
U 1 1 586335E0
P 2000 7600
F 0 "#PWR?" H 2000 7350 50  0001 C CNN
F 1 "GND" H 2000 7450 50  0000 C CNN
F 2 "" H 2000 7600 50  0000 C CNN
F 3 "" H 2000 7600 50  0000 C CNN
	1    2000 7600
	1    0    0    -1  
$EndComp
Wire Wire Line
	2650 4250 2750 4250
Wire Wire Line
	2650 4150 2750 4150
Wire Wire Line
	1350 4150 2300 4150
Wire Wire Line
	2300 4150 2350 4150
Wire Wire Line
	1350 4250 2300 4250
Wire Wire Line
	2300 4250 2350 4250
Wire Wire Line
	1750 3650 1750 4050
Wire Wire Line
	1750 4050 1750 4300
Wire Wire Line
	1750 3650 1850 3650
Wire Wire Line
	1850 3650 2000 3650
Wire Wire Line
	2300 3650 2400 3650
Wire Wire Line
	2400 3650 2400 3350
Wire Wire Line
	2400 3350 2600 3350
Wire Wire Line
	2600 3350 3350 3350
Wire Wire Line
	3350 3250 3350 3350
Wire Wire Line
	3350 3350 3350 3550
Connection ~ 3350 3350
Wire Wire Line
	2000 3800 2000 4600
Wire Wire Line
	2000 4600 2000 4650
Wire Wire Line
	3550 3450 3550 3550
Wire Wire Line
	2450 3450 2600 3450
Wire Wire Line
	2600 3450 3550 3450
Wire Wire Line
	2450 3450 2450 3800
Wire Wire Line
	2450 3800 2450 3850
Wire Wire Line
	2450 3800 2000 3800
Wire Wire Line
	3550 4950 3550 5000
Wire Wire Line
	3550 5000 3550 5050
Wire Wire Line
	2000 5000 3350 5000
Wire Wire Line
	3350 5000 3550 5000
Wire Wire Line
	2000 5000 2000 4950
Wire Wire Line
	3350 4950 3350 5000
Connection ~ 3350 5000
Connection ~ 3550 5000
Wire Wire Line
	950  4650 950  4700
Wire Wire Line
	950  4700 950  4750
Wire Wire Line
	950  4700 1400 4700
Wire Wire Line
	1400 4700 1750 4700
Wire Wire Line
	1400 4700 1400 4450
Wire Wire Line
	1400 4450 1350 4450
Connection ~ 950  4700
Wire Wire Line
	1750 4700 1750 4600
Connection ~ 1400 4700
Wire Wire Line
	1350 4050 1750 4050
Connection ~ 1750 4050
Wire Wire Line
	1200 3250 1200 3300
Wire Wire Line
	1050 3300 1200 3300
Wire Wire Line
	1200 3300 1350 3300
Wire Wire Line
	1050 3300 1050 3350
Wire Wire Line
	1050 3650 1050 3700
Wire Wire Line
	1050 3700 1200 3700
Wire Wire Line
	1200 3700 1350 3700
Wire Wire Line
	1200 3700 1200 3750
Wire Wire Line
	1350 3700 1350 3650
Connection ~ 1200 3700
Wire Wire Line
	1350 3300 1350 3350
Connection ~ 1200 3300
Wire Wire Line
	5200 3600 5200 3500
Wire Wire Line
	5200 3500 5400 3500
Wire Wire Line
	5400 3500 5600 3500
Wire Wire Line
	5600 3500 5800 3500
Wire Wire Line
	5800 3500 5800 3600
Wire Wire Line
	5600 3600 5600 3500
Connection ~ 5600 3500
Wire Wire Line
	5400 3600 5400 3500
Connection ~ 5400 3500
Wire Wire Line
	5200 3950 5200 3900
Wire Wire Line
	5100 3950 5200 3950
Wire Wire Line
	5400 3900 5400 4050
Wire Wire Line
	5400 4050 5100 4050
Wire Wire Line
	5600 3900 5600 4150
Wire Wire Line
	5600 4150 5100 4150
Wire Wire Line
	5800 3900 5800 4250
Wire Wire Line
	5800 4250 5100 4250
Wire Notes Line
	600  2800 600  5300
Wire Notes Line
	600  5300 4700 5300
Wire Notes Line
	4700 5300 4700 2800
Wire Notes Line
	4700 2800 600  2800
Wire Notes Line
	4850 3200 4850 4450
Wire Notes Line
	4850 4450 6200 4450
Wire Notes Line
	6200 4450 6200 3200
Wire Notes Line
	6200 3200 4850 3200
Wire Wire Line
	6850 3450 6850 3350
Wire Wire Line
	6850 3350 7250 3350
Wire Wire Line
	7250 3350 7300 3350
Wire Wire Line
	7250 3450 7250 3350
Connection ~ 7250 3350
Wire Wire Line
	6850 4100 6850 4200
Wire Wire Line
	6850 4200 6750 4200
Wire Wire Line
	7250 4100 7250 4300
Wire Wire Line
	7250 4300 6750 4300
Wire Wire Line
	6850 3800 6850 3750
Wire Wire Line
	7250 3800 7250 3750
Wire Notes Line
	8350 3200 8350 4450
Wire Notes Line
	8350 4450 6300 4450
Wire Notes Line
	6300 4450 6300 3200
Wire Notes Line
	6300 3200 8350 3200
Wire Wire Line
	4400 4650 4150 4650
Wire Wire Line
	4150 4550 4350 4550
Wire Wire Line
	4400 4450 4150 4450
Wire Wire Line
	4350 4350 4150 4350
Wire Wire Line
	4400 4150 4150 4150
Wire Wire Line
	4350 4050 4150 4050
Wire Wire Line
	4400 3950 4150 3950
Wire Wire Line
	4350 3850 4150 3850
Wire Wire Line
	2300 4300 2300 4250
Connection ~ 2300 4250
Wire Wire Line
	2300 4100 2300 4150
Connection ~ 2300 4150
Wire Wire Line
	2600 3500 2600 3450
Connection ~ 2600 3450
Wire Wire Line
	2600 3300 2600 3350
Connection ~ 2600 3350
Wire Wire Line
	1850 3600 1850 3650
Connection ~ 1850 3650
Wire Wire Line
	2450 3850 2750 3850
Connection ~ 2450 3800
Wire Wire Line
	2750 4450 2400 4450
Wire Wire Line
	2400 4450 2400 4600
Wire Wire Line
	2400 4600 2000 4600
Connection ~ 2000 4600
Wire Wire Line
	5200 6100 4900 6100
Wire Wire Line
	4900 6100 4900 6050
Wire Wire Line
	5200 6200 4900 6200
Wire Wire Line
	4900 6200 4900 6250
Wire Wire Line
	3750 7450 3700 7450
Wire Wire Line
	3700 7450 3700 7500
Wire Wire Line
	3700 7500 3700 7550
Wire Wire Line
	3700 7500 3400 7500
Wire Wire Line
	3500 7150 3450 7150
Wire Wire Line
	3450 7150 3450 7200
Wire Wire Line
	3450 7200 3450 7250
Wire Wire Line
	3450 7200 3400 7200
Wire Wire Line
	3450 7250 3500 7250
Connection ~ 3450 7200
Wire Wire Line
	3700 7550 3750 7550
Connection ~ 3700 7500
Wire Wire Line
	4300 5950 4050 5950
Wire Wire Line
	4350 6050 4050 6050
Wire Wire Line
	4050 6150 4300 6150
Wire Wire Line
	4050 6250 4350 6250
Wire Wire Line
	4050 6350 4300 6350
Wire Wire Line
	4050 6450 4350 6450
Wire Wire Line
	1050 5850 1050 5950
Wire Wire Line
	1050 5950 1100 5950
Wire Wire Line
	1100 5950 1250 5950
Wire Wire Line
	1050 6650 1050 6550
Wire Wire Line
	1050 6550 1100 6550
Wire Wire Line
	1100 6550 1250 6550
Wire Wire Line
	1100 6100 1100 5950
Connection ~ 1100 5950
Wire Wire Line
	1100 6400 1100 6550
Connection ~ 1100 6550
Wire Wire Line
	3800 7150 4100 7150
Wire Wire Line
	3800 7250 4100 7250
Wire Wire Line
	4050 7450 4100 7450
Wire Wire Line
	4050 7550 4100 7550
Wire Wire Line
	8100 3450 8100 3400
Wire Wire Line
	8100 3800 8100 3750
Wire Wire Line
	8100 4100 8100 4200
Wire Notes Line
	3050 6900 3050 7700
Wire Notes Line
	3050 7700 4400 7700
Wire Notes Line
	4400 7700 4400 6900
Wire Notes Line
	4400 6900 3050 6900
Wire Notes Line
	600  7900 5750 7900
Wire Notes Line
	5750 7900 5750 5400
Wire Notes Line
	5750 5400 600  5400
Wire Notes Line
	600  5400 600  7900
Wire Wire Line
	7750 4100 7750 4300
Wire Wire Line
	7750 4300 7650 4300
Wire Wire Line
	7750 3800 7750 3750
Wire Wire Line
	7750 3450 7750 3400
Wire Wire Line
	6650 5000 6650 5050
Wire Wire Line
	6650 5050 6650 5100
Wire Wire Line
	6650 5050 6950 5050
Wire Wire Line
	6950 5050 6950 5150
Connection ~ 6650 5050
Wire Wire Line
	6550 5450 6650 5450
Wire Wire Line
	6650 5450 6800 5450
Wire Wire Line
	6650 5400 6650 5450
Connection ~ 6650 5450
Wire Wire Line
	7200 5450 7250 5450
Wire Wire Line
	7250 5450 7350 5450
Wire Wire Line
	7350 5450 7450 5450
Wire Wire Line
	7350 5450 7350 5400
Connection ~ 7350 5450
Wire Wire Line
	7350 5100 7350 4950
Wire Wire Line
	8150 5400 8150 5450
Wire Wire Line
	8050 5450 8150 5450
Wire Wire Line
	8150 5450 8300 5450
Wire Wire Line
	8150 5000 8150 5050
Wire Wire Line
	8150 5050 8150 5100
Wire Wire Line
	8150 5050 8450 5050
Wire Wire Line
	8450 5050 8450 5150
Connection ~ 8150 5050
Wire Wire Line
	8850 5100 8850 4950
Wire Wire Line
	8850 5450 8850 5400
Wire Wire Line
	8700 5450 8750 5450
Wire Wire Line
	8750 5450 8850 5450
Wire Wire Line
	8850 5450 8950 5450
Connection ~ 8150 5450
Connection ~ 8850 5450
Wire Wire Line
	8200 6300 8200 6350
Wire Wire Line
	8100 6350 8200 6350
Wire Wire Line
	8200 6350 8350 6350
Wire Wire Line
	8200 5900 8200 5950
Wire Wire Line
	8200 5950 8200 6000
Wire Wire Line
	8200 5950 8500 5950
Wire Wire Line
	8500 5950 8500 6050
Connection ~ 8200 5950
Connection ~ 8200 6350
Wire Wire Line
	8750 6350 8900 6350
Wire Wire Line
	8900 6350 9000 6350
Wire Wire Line
	8900 6350 8900 6300
Connection ~ 8900 6350
Wire Wire Line
	8900 6000 8900 5850
Wire Wire Line
	6700 5900 6700 5950
Wire Wire Line
	6700 5950 6700 6000
Wire Wire Line
	6700 5950 7000 5950
Wire Wire Line
	7000 5950 7000 6050
Connection ~ 6700 5950
Wire Wire Line
	6700 6300 6700 6350
Wire Wire Line
	6600 6350 6700 6350
Wire Wire Line
	6700 6350 6850 6350
Connection ~ 6700 6350
Wire Wire Line
	7250 6350 7400 6350
Wire Wire Line
	7400 6350 7500 6350
Wire Wire Line
	7400 6350 7400 6300
Connection ~ 7400 6350
Wire Wire Line
	7400 6000 7400 5850
Wire Wire Line
	7250 5400 7250 5450
Connection ~ 7250 5450
Wire Wire Line
	8750 5400 8750 5450
Connection ~ 8750 5450
Wire Notes Line
	7850 6700 7850 4600
Wire Notes Line
	6300 5600 9350 5600
Wire Notes Line
	9350 4600 9350 6700
Wire Notes Line
	9350 6700 6300 6700
Wire Notes Line
	6300 6700 6300 4600
Wire Notes Line
	6300 4600 9350 4600
Wire Wire Line
	1700 7000 1850 7000
Wire Wire Line
	2150 7000 2200 7000
Wire Wire Line
	1850 7300 1900 7300
Wire Wire Line
	1900 7300 2150 7300
Wire Wire Line
	2050 7400 2150 7400
Wire Wire Line
	1850 7500 1900 7500
Wire Wire Line
	1900 7500 2150 7500
Wire Wire Line
	2000 7600 2050 7600
Wire Wire Line
	2050 7600 2150 7600
Wire Wire Line
	1450 7400 1900 7400
Wire Wire Line
	1900 7400 1900 7500
Connection ~ 1900 7500
Wire Wire Line
	1450 7200 1900 7200
Wire Wire Line
	1900 7200 1900 7300
Connection ~ 1900 7300
Wire Wire Line
	2050 7400 2050 7600
Connection ~ 2050 7600
Wire Wire Line
	1550 7300 1500 7300
Wire Wire Line
	1550 7500 1500 7500
Wire Notes Line
	1150 6850 1150 7800
Wire Notes Line
	1150 7800 2600 7800
Wire Notes Line
	2600 7800 2600 6850
Wire Notes Line
	2600 6850 1150 6850
Text Label 4150 4650 0    60   ~ 0
CBUS3
$EndSCHEMATC
